Person0

Person8

Person5

Person5

Person4

Person16

Person3

Person2

Person4

Person9

Person7

Person1

Person1

Person7

Person2

Person3

Person9

Person4

Person2

Person0

Person1

Person0

Person1

Person1

Person8

Person0

Person1

Person4

Person0

Person6

Person2

Person1

Person4

Person6

Person9

Person4

Person6

Person19

Person1
Person7

Person5

Person10

Person4

Person8

Person2

Person0

Person8

Person2

Person4

Person0

Person5

Person2

Person0

Person0

Person2

Person1

Person11

Person18

Person0

Person1

Person0

Person10

Person6

Person6

Person3

Person1

Person9

Person4

Person9

Person0

Person1

Person2

Person0

Person1

Person2

Person17

Person1

Person0

Person3

Person7

Person10

Person11

Person2

Person0

Person0

Person10

Person6

Person8

Person0

Person11

Person1

Person0

Person13

Person0

Person3

Person3
Person9
Person15
Person16

Person3

Person4

Person4

Person1

Person13
